{
  "runtime_dir": "runtime/Resources",
  "preview_dir": "runtime/Preview",
  "temp_dir": "runtime/temp",
  "export_tmp_dir": "runtime/export_tmp",
  "resources": [
    {
      "Source": "https://bitbucket.org/california-public-resources/california-downloads/raw/HEAD/SCORM-1.2.zip",
      "Name": "SCORM-1.2"
    },
    {
      "Source": "https://bitbucket.org/california-public-resources/california-downloads/raw/HEAD/SCORM-2004.zip",
      "Name": "SCORM-2004"
    }
  ],
  "players": [
    {
      "ID": "Venice",
      "Name": "Venice (Default)",
      "Source": "https://bitbucket.org/california-public-resources/california-downloads/raw/HEAD/Venice.zip",
      "Map": {
        "PlayerFiles": ["index.html", "assets"]
      }
    },
    {
      "ID": "LynkCo",
      "Name": "Lynk&Co",
      "Source": "https://bitbucket.org/california-public-resources/california-downloads/raw/HEAD/LynkCo.zip",
      "Map": {
        "PlayerFiles": ["index.html", "assets"],
        "Resources": [
          {
            "Source": "https://bitbucket.org/california-public-resources/california-downloads/raw/HEAD/LynkCo-XML-Interpreter.zip",
            "Name": "LynkCo-XML-Interpreter",
            "Alias": "XML-Interpreter"
          }
        ]
      }
    },
    {
      "ID": "VCC",
      "Name": "Volvo Cars",
      "Source": "https://bitbucket.org/california-public-resources/california-downloads/raw/HEAD/Volvo%20Cars%20CMS.zip",
      "Map": {
        "PlayerFiles": ["index.html", "assets"]
      }
    },
    {
      "ID": "VCC-CMS",
      "Name": "Volvo Cars - CMS",
      "Source": "https://bitbucket.org/california-public-resources/california-downloads/raw/HEAD/Volvo%20Cars%20CMS.zip",
      "Map": {
        "PlayerFiles": ["index.html", "assets"],
        "Resources": [
          {
            "Source": "https://bitbucket.org/california-public-resources/california-downloads/raw/HEAD/Volvo-Cars-XML-Interpreter.zip",
            "Name": "Volvo-Cars-XML-Interpreter",
            "Alias": "XML-Interpreter"
          },
          {
            "Source": "https://bitbucket.org/california-public-resources/california-downloads/raw/HEAD/Volvo-Cars-courseJSON.json",
            "Name": "Volvo-Cars-courseJSON",
            "Alias": "courseJSON.json"
          }
        ],
        "InsertInto": ["**/*.xml", "**/*.json"],
        "Structure": [
          {
            "test": "^[0-9a-f]{32}-[0-9]+$",
            "target": "data/XML"
          },
          {
            "type": ".xml",
            "target": "data/XML"
          },
          {
            "type": ".zip",
            "process": "unzip",
            "target": "data"
          }
        ]
      }
    },
    {
      "ID": "AB Volvo",
      "Name": "AB Volvo - Kentucky",
      "Source": "https://bitbucket.org/california-public-resources/california-downloads/raw/HEAD/AB-Volvo.zip",
      "Map": {
        "PlayerFiles": ["index.html", "assets"],
        "Resources": [
          {
            "Source": "https://bitbucket.org/california-public-resources/california-downloads/raw/HEAD/AB-Volvo-XML-Interpreter.zip",
            "Name": "AB-Volvo-XML-Interpreter",
            "Alias": "XML-Interpreter"
          },
          {
            "Source": "https://bitbucket.org/california-public-resources/california-downloads/raw/HEAD/AB-Volvo-courseJSON.json",
            "Name": "AB-Volvo-courseJSON",
            "Alias": "courseJSON.json"
          },
          {
            "Source": "https://bitbucket.org/california-public-resources/california-downloads/raw/HEAD/AB-Volvo-languages.json",
            "Name": "AB-Volvo-languages",
            "Alias": "languages.json"
          }
        ],
        "PacketIDPattern": "^S\\d{6}",
        "LanguagePattern": "[a-z]{2}-[A-Z]{2}",
        "FileNamePattern": "{PacketIDPattern}.*_{LanguagePattern}\\.zip$",
        "InsertInto": ["**/*.xml", "**/*.json"],
        "Structure": [
          {
            "type": ".xml",
            "target": "data/XML"
          },
          {
            "type": "xml",
            "target": "data"
          },
          {
            "type": "images",
            "target": "data"
          },
          {
            "type": "videos",
            "target": "data"
          },
          {
            "type": ".zip",
            "process": "unzip",
            "target": "data"
          }
        ]
      }
    },
    {
      "ID": "AB Volvo Legacy",
      "Name": "AB Volvo (Legacy) - Kentucky",
      "Source": "https://bitbucket.org/california-public-resources/california-downloads/raw/HEAD/AB-Volvo-legacy.zip",
      "Map": {
        "PlayerFiles": ["index.html", "assets"],
        "Resources": [
          {
            "Source": "https://bitbucket.org/california-public-resources/california-downloads/raw/HEAD/AB-Volvo-Legacy-XML-Interpreter.zip",
            "Name": "AB-Volvo-Legacy-XML-Interpreter",
            "Alias": "XML-Interpreter"
          },
          {
            "Source": "https://bitbucket.org/california-public-resources/california-downloads/raw/HEAD/AB-Volvo-courseJSON.json",
            "Name": "AB-Volvo-courseJSON",
            "Alias": "courseJSON.json"
          },
          {
            "Source": "https://bitbucket.org/california-public-resources/california-downloads/raw/HEAD/AB-Volvo-languages.json",
            "Name": "AB-Volvo-languages",
            "Alias": "languages.json"
          }
        ],
        "PacketIDPattern": "^S\\d{6}",
        "LanguagePattern": "[a-z]{2}-[A-Z]{2}",
        "FileNamePattern": "{PacketIDPattern}.*_{LanguagePattern}\\.zip$",
        "InsertInto": ["**/*.xml", "**/*.json"],
        "Structure": [
          {
            "type": ".xml",
            "target": "data/XML"
          },
          {
            "type": "xml",
            "target": "data"
          },
          {
            "type": "images",
            "target": "data"
          },
          {
            "type": "videos",
            "target": "data"
          },
          {
            "type": ".zip",
            "process": "unzip",
            "target": "data"
          }
        ]
      }
    },
    {
      "ID": "Renault",
      "Name": "Renault - Kentucky",
      "Source": "https://bitbucket.org/california-public-resources/california-downloads/raw/HEAD/Renault.zip",
      "Map": {
        "PlayerFiles": ["index.html", "assets"],
        "Resources": [
          {
            "Source": "https://bitbucket.org/california-public-resources/california-downloads/raw/HEAD/Renault-XML-Interpreter.zip",
            "Name": "Renault-XML-Interpreter",
            "Alias": "XML-Interpreter"
          },
          {
            "Source": "https://bitbucket.org/california-public-resources/california-downloads/raw/HEAD/Renault-courseJSON.json",
            "Name": "Renault-courseJSON",
            "Alias": "courseJSON.json"
          },
          {
            "Source": "https://bitbucket.org/california-public-resources/california-downloads/raw/HEAD/AB-Volvo-languages.json",
            "Name": "Renault-languages",
            "Alias": "languages.json"
          }
        ],
        "PacketIDPattern": "^S\\d{6}",
        "LanguagePattern": "[a-z]{2}-[A-Z]{2}",
        "FileNamePattern": "{PacketIDPattern}.*_{LanguagePattern}\\.zip$",
        "InsertInto": ["**/*.xml", "**/*.json"],
        "Structure": [
          {
            "type": ".xml",
            "target": "data/XML"
          },
          {
            "type": "xml",
            "target": "data"
          },
          {
            "type": "images",
            "target": "data"
          },
          {
            "type": "videos",
            "target": "data"
          },
          {
            "type": ".zip",
            "process": "unzip",
            "target": "data"
          }
        ]
      }
    },
    {
      "ID": "VCC-Legacy",
      "Name": "Volvo Cars - Legacy",
      "Source": "https://bitbucket.org/california-public-resources/california-downloads/raw/HEAD/Volvo-Cars-Legacy.zip",
      "Map": {
        "PlayerFiles": ["index.html", "assets", "loaders", "script", "style"]
      }
    },
    {
      "ID": "AGCO",
      "Name": "AGCO",
      "Source": "https://bitbucket.org/california-public-resources/california-downloads/raw/HEAD/AGCO.zip",
      "Map": {
        "PlayerFiles": ["index.html", "assets", "style", "data", "XML-transformers"],
        "Resources": [
          {
            "Source": "https://bitbucket.org/california-public-resources/california-downloads/raw/HEAD/AGCO-courseJSON.json",
            "Name": "AGCO-courseJSON",
            "Alias": "courseJSON.json"
          }],
          "InsertInto": ["**/*.xml", "**/*.json"]
      }
    }
  ]
}
